\relax 
\providecommand\hyper@newdestlabel[2]{}
\@nameuse{bbl@beforestart}
\catcode `"\active 
\catcode `<\active 
\catcode `>\active 
\@nameuse{es@quoting}
\providecommand\HyperFirstAtBeginDocument{\AtBeginDocument}
\HyperFirstAtBeginDocument{\ifx\hyper@anchor\@undefined
\global\let\oldcontentsline\contentsline
\gdef\contentsline#1#2#3#4{\oldcontentsline{#1}{#2}{#3}}
\global\let\oldnewlabel\newlabel
\gdef\newlabel#1#2{\newlabelxx{#1}#2}
\gdef\newlabelxx#1#2#3#4#5#6{\oldnewlabel{#1}{{#2}{#3}}}
\AtEndDocument{\ifx\hyper@anchor\@undefined
\let\contentsline\oldcontentsline
\let\newlabel\oldnewlabel
\fi}
\fi}
\global\let\hyper@last\relax 
\gdef\HyperFirstAtBeginDocument#1{#1}
\providecommand\HyField@AuxAddToFields[1]{}
\providecommand\HyField@AuxAddToCoFields[2]{}
\abx@aux@refcontext{anyt/global//global/global}
\providecommand \oddpage@label [2]{}
\@writefile{toc}{\boolfalse {citerequest}\boolfalse {citetracker}\boolfalse {pagetracker}\boolfalse {backtracker}\relax }
\@writefile{lof}{\boolfalse {citerequest}\boolfalse {citetracker}\boolfalse {pagetracker}\boolfalse {backtracker}\relax }
\@writefile{lot}{\boolfalse {citerequest}\boolfalse {citetracker}\boolfalse {pagetracker}\boolfalse {backtracker}\relax }
\babel@aux{spanish}{}
\@writefile{toc}{\defcounter {refsection}{0}\relax }\@writefile{toc}{\contentsline {section}{\numberline {1}Instrucciones}{2}{section.1}\protected@file@percent }
\@writefile{toc}{\defcounter {refsection}{0}\relax }\@writefile{toc}{\contentsline {section}{\numberline {2}Experimentación y Resultados}{4}{section.2}\protected@file@percent }
\@writefile{toc}{\defcounter {refsection}{0}\relax }\@writefile{toc}{\contentsline {subsection}{\numberline {2.1}Con $N=4$}{4}{subsection.2.1}\protected@file@percent }
\@writefile{lof}{\defcounter {refsection}{0}\relax }\@writefile{lof}{\contentsline {figure}{\numberline {1}{\ignorespaces Ejecutamos el nodo0 y se despliega la matriz A y B\relax }}{4}{figure.caption.1}\protected@file@percent }
\providecommand*\caption@xref[2]{\@setref\relax\@undefined{#1}}
\newlabel{fig:mesh2}{{1}{4}{Ejecutamos el nodo0 y se despliega la matriz A y B\relax }{figure.caption.1}{}}
\@writefile{lof}{\defcounter {refsection}{0}\relax }\@writefile{lof}{\contentsline {figure}{\numberline {2}{\ignorespaces Ejecutamos el nodo 1\relax }}{5}{figure.caption.2}\protected@file@percent }
\newlabel{fig:mesh2}{{2}{5}{Ejecutamos el nodo 1\relax }{figure.caption.2}{}}
\@writefile{lof}{\defcounter {refsection}{0}\relax }\@writefile{lof}{\contentsline {figure}{\numberline {3}{\ignorespaces Ejecutamos el nodo 2\relax }}{5}{figure.caption.3}\protected@file@percent }
\newlabel{fig:mesh2}{{3}{5}{Ejecutamos el nodo 2\relax }{figure.caption.3}{}}
\@writefile{lof}{\defcounter {refsection}{0}\relax }\@writefile{lof}{\contentsline {figure}{\numberline {4}{\ignorespaces Ejecutamos el nodo 3\relax }}{6}{figure.caption.4}\protected@file@percent }
\newlabel{fig:mesh2}{{4}{6}{Ejecutamos el nodo 3\relax }{figure.caption.4}{}}
\@writefile{lof}{\defcounter {refsection}{0}\relax }\@writefile{lof}{\contentsline {figure}{\numberline {5}{\ignorespaces Ejecutamos el nodo 4\relax }}{6}{figure.caption.5}\protected@file@percent }
\newlabel{fig:mesh2}{{5}{6}{Ejecutamos el nodo 4\relax }{figure.caption.5}{}}
\@writefile{toc}{\defcounter {refsection}{0}\relax }\@writefile{toc}{\contentsline {subsection}{\numberline {2.2}Con $N=1000$}{7}{subsection.2.2}\protected@file@percent }
\@writefile{lof}{\defcounter {refsection}{0}\relax }\@writefile{lof}{\contentsline {figure}{\numberline {6}{\ignorespaces Ejecutamos el nodo0 para este no se muestra ninguna matriz\relax }}{7}{figure.caption.6}\protected@file@percent }
\newlabel{fig:mesh2}{{6}{7}{Ejecutamos el nodo0 para este no se muestra ninguna matriz\relax }{figure.caption.6}{}}
\@writefile{lof}{\defcounter {refsection}{0}\relax }\@writefile{lof}{\contentsline {figure}{\numberline {7}{\ignorespaces Ejecutamos el nodo 1\relax }}{8}{figure.caption.7}\protected@file@percent }
\newlabel{fig:mesh2}{{7}{8}{Ejecutamos el nodo 1\relax }{figure.caption.7}{}}
\@writefile{lof}{\defcounter {refsection}{0}\relax }\@writefile{lof}{\contentsline {figure}{\numberline {8}{\ignorespaces Ejecutamos el nodo 2\relax }}{8}{figure.caption.8}\protected@file@percent }
\newlabel{fig:mesh2}{{8}{8}{Ejecutamos el nodo 2\relax }{figure.caption.8}{}}
\@writefile{lof}{\defcounter {refsection}{0}\relax }\@writefile{lof}{\contentsline {figure}{\numberline {9}{\ignorespaces Ejecutamos el nodo 3\relax }}{9}{figure.caption.9}\protected@file@percent }
\newlabel{fig:mesh2}{{9}{9}{Ejecutamos el nodo 3\relax }{figure.caption.9}{}}
\@writefile{lof}{\defcounter {refsection}{0}\relax }\@writefile{lof}{\contentsline {figure}{\numberline {10}{\ignorespaces Ejecutamos el nodo 4\relax }}{9}{figure.caption.10}\protected@file@percent }
\newlabel{fig:mesh2}{{10}{9}{Ejecutamos el nodo 4\relax }{figure.caption.10}{}}
\@writefile{toc}{\defcounter {refsection}{0}\relax }\@writefile{toc}{\contentsline {section}{\numberline {3}Conclusiones}{10}{section.3}\protected@file@percent }
