\relax 
\providecommand\hyper@newdestlabel[2]{}
\@nameuse{bbl@beforestart}
\catcode `"\active 
\catcode `<\active 
\catcode `>\active 
\@nameuse{es@quoting}
\providecommand\HyperFirstAtBeginDocument{\AtBeginDocument}
\HyperFirstAtBeginDocument{\ifx\hyper@anchor\@undefined
\global\let\oldcontentsline\contentsline
\gdef\contentsline#1#2#3#4{\oldcontentsline{#1}{#2}{#3}}
\global\let\oldnewlabel\newlabel
\gdef\newlabel#1#2{\newlabelxx{#1}#2}
\gdef\newlabelxx#1#2#3#4#5#6{\oldnewlabel{#1}{{#2}{#3}}}
\AtEndDocument{\ifx\hyper@anchor\@undefined
\let\contentsline\oldcontentsline
\let\newlabel\oldnewlabel
\fi}
\fi}
\global\let\hyper@last\relax 
\gdef\HyperFirstAtBeginDocument#1{#1}
\providecommand\HyField@AuxAddToFields[1]{}
\providecommand\HyField@AuxAddToCoFields[2]{}
\abx@aux@refcontext{anyt/global//global/global}
\providecommand \oddpage@label [2]{}
\@writefile{toc}{\boolfalse {citerequest}\boolfalse {citetracker}\boolfalse {pagetracker}\boolfalse {backtracker}\relax }
\@writefile{lof}{\boolfalse {citerequest}\boolfalse {citetracker}\boolfalse {pagetracker}\boolfalse {backtracker}\relax }
\@writefile{lot}{\boolfalse {citerequest}\boolfalse {citetracker}\boolfalse {pagetracker}\boolfalse {backtracker}\relax }
\babel@aux{spanish}{}
\@writefile{toc}{\defcounter {refsection}{0}\relax }\@writefile{toc}{\contentsline {section}{\numberline {1}Instrucciones}{2}{section.1}\protected@file@percent }
\@writefile{lof}{\defcounter {refsection}{0}\relax }\@writefile{lof}{\contentsline {figure}{\numberline {1}{\ignorespaces Topología lógica de anillo.\relax }}{2}{figure.caption.1}\protected@file@percent }
\providecommand*\caption@xref[2]{\@setref\relax\@undefined{#1}}
\newlabel{fig:mesh2}{{1}{2}{Topología lógica de anillo.\relax }{figure.caption.1}{}}
\@writefile{toc}{\defcounter {refsection}{0}\relax }\@writefile{toc}{\contentsline {section}{\numberline {2}Experimentación y Resultados}{3}{section.2}\protected@file@percent }
\@writefile{toc}{\defcounter {refsection}{0}\relax }\@writefile{toc}{\contentsline {subsection}{\numberline {2.1}Máquinas Virtuales}{3}{subsection.2.1}\protected@file@percent }
\@writefile{lof}{\defcounter {refsection}{0}\relax }\@writefile{lof}{\contentsline {figure}{\numberline {2}{\ignorespaces Nombramos la Máquina Virtual: en este caso será para el nodo \textbf  {1} por lo que el nombre es $2015090419-1$.\relax }}{4}{figure.caption.2}\protected@file@percent }
\newlabel{fig:mesh2}{{2}{4}{Nombramos la Máquina Virtual: en este caso será para el nodo \textbf {1} por lo que el nombre es $2015090419-1$.\relax }{figure.caption.2}{}}
\@writefile{lof}{\defcounter {refsection}{0}\relax }\@writefile{lof}{\contentsline {figure}{\numberline {3}{\ignorespaces Tamaño de la Máquina Virtual: seleccionamos el tamaño de 1G de RAM.\relax }}{4}{figure.caption.3}\protected@file@percent }
\newlabel{fig:mesh2}{{3}{4}{Tamaño de la Máquina Virtual: seleccionamos el tamaño de 1G de RAM.\relax }{figure.caption.3}{}}
\@writefile{lof}{\defcounter {refsection}{0}\relax }\@writefile{lof}{\contentsline {figure}{\numberline {4}{\ignorespaces Imagen de la máquina: compobamos que la imagen seleccionada sea una distribución de Linux, en este caso Ubuntu.\relax }}{5}{figure.caption.4}\protected@file@percent }
\newlabel{fig:mesh2}{{4}{5}{Imagen de la máquina: compobamos que la imagen seleccionada sea una distribución de Linux, en este caso Ubuntu.\relax }{figure.caption.4}{}}
\@writefile{lof}{\defcounter {refsection}{0}\relax }\@writefile{lof}{\contentsline {figure}{\numberline {5}{\ignorespaces Despues de haber seleccionado el tipo de disco y crado la máquina, podemos utilizar el recurso.\relax }}{5}{figure.caption.5}\protected@file@percent }
\newlabel{fig:mesh2}{{5}{5}{Despues de haber seleccionado el tipo de disco y crado la máquina, podemos utilizar el recurso.\relax }{figure.caption.5}{}}
\@writefile{lof}{\defcounter {refsection}{0}\relax }\@writefile{lof}{\contentsline {figure}{\numberline {6}{\ignorespaces Habilitamos el puerto 50000: por defecto tenemos el puerto 22, agregaremos otro puerto para esta práctica.\relax }}{6}{figure.caption.6}\protected@file@percent }
\newlabel{fig:mesh2}{{6}{6}{Habilitamos el puerto 50000: por defecto tenemos el puerto 22, agregaremos otro puerto para esta práctica.\relax }{figure.caption.6}{}}
\@writefile{lof}{\defcounter {refsection}{0}\relax }\@writefile{lof}{\contentsline {figure}{\numberline {7}{\ignorespaces Configuramos el nuevo puerto indicando el número de puerto y el protocolo.\relax }}{6}{figure.caption.7}\protected@file@percent }
\newlabel{fig:mesh2}{{7}{6}{Configuramos el nuevo puerto indicando el número de puerto y el protocolo.\relax }{figure.caption.7}{}}
\@writefile{lof}{\defcounter {refsection}{0}\relax }\@writefile{lof}{\contentsline {figure}{\numberline {8}{\ignorespaces Indicamos el nombre y posteriormente damos agregar.\relax }}{7}{figure.caption.8}\protected@file@percent }
\newlabel{fig:mesh2}{{8}{7}{Indicamos el nombre y posteriormente damos agregar.\relax }{figure.caption.8}{}}
\@writefile{lof}{\defcounter {refsection}{0}\relax }\@writefile{lof}{\contentsline {figure}{\numberline {9}{\ignorespaces Vemos que la nueva regla de entrada ya esta hecha.\relax }}{7}{figure.caption.9}\protected@file@percent }
\newlabel{fig:mesh2}{{9}{7}{Vemos que la nueva regla de entrada ya esta hecha.\relax }{figure.caption.9}{}}
\@writefile{lof}{\defcounter {refsection}{0}\relax }\@writefile{lof}{\contentsline {figure}{\numberline {10}{\ignorespaces Así quedan las tres máquinas.\relax }}{8}{figure.caption.10}\protected@file@percent }
\newlabel{fig:mesh2}{{10}{8}{Así quedan las tres máquinas.\relax }{figure.caption.10}{}}
\@writefile{toc}{\defcounter {refsection}{0}\relax }\@writefile{toc}{\contentsline {subsection}{\numberline {2.2}Usando la Máquina Virtual}{9}{subsection.2.2}\protected@file@percent }
\@writefile{lof}{\defcounter {refsection}{0}\relax }\@writefile{lof}{\contentsline {figure}{\numberline {11}{\ignorespaces Ingresamos la IP de cada maquina para acceder a ella.\relax }}{9}{figure.caption.11}\protected@file@percent }
\newlabel{fig:mesh2}{{11}{9}{Ingresamos la IP de cada maquina para acceder a ella.\relax }{figure.caption.11}{}}
\@writefile{lof}{\defcounter {refsection}{0}\relax }\@writefile{lof}{\contentsline {figure}{\numberline {12}{\ignorespaces Le dicemos que sí a la ventana emergente y nos desplegara la terminal de la máquina.\relax }}{10}{figure.caption.12}\protected@file@percent }
\newlabel{fig:mesh2}{{12}{10}{Le dicemos que sí a la ventana emergente y nos desplegara la terminal de la máquina.\relax }{figure.caption.12}{}}
\@writefile{lof}{\defcounter {refsection}{0}\relax }\@writefile{lof}{\contentsline {figure}{\numberline {13}{\ignorespaces Ingresamos a la máquina virtual.\relax }}{10}{figure.caption.13}\protected@file@percent }
\newlabel{fig:mesh2}{{13}{10}{Ingresamos a la máquina virtual.\relax }{figure.caption.13}{}}
\@writefile{lof}{\defcounter {refsection}{0}\relax }\@writefile{lof}{\contentsline {figure}{\numberline {14}{\ignorespaces Actualizamos el sistema para porteriormente instalar Java.\relax }}{11}{figure.caption.14}\protected@file@percent }
\newlabel{fig:mesh2}{{14}{11}{Actualizamos el sistema para porteriormente instalar Java.\relax }{figure.caption.14}{}}
\@writefile{lof}{\defcounter {refsection}{0}\relax }\@writefile{lof}{\contentsline {figure}{\numberline {15}{\ignorespaces Instalamos el JDK por defecto.\relax }}{11}{figure.caption.15}\protected@file@percent }
\newlabel{fig:mesh2}{{15}{11}{Instalamos el JDK por defecto.\relax }{figure.caption.15}{}}
\@writefile{lof}{\defcounter {refsection}{0}\relax }\@writefile{lof}{\contentsline {figure}{\numberline {16}{\ignorespaces Instalamos el JRE por defecto.\relax }}{12}{figure.caption.16}\protected@file@percent }
\newlabel{fig:mesh2}{{16}{12}{Instalamos el JRE por defecto.\relax }{figure.caption.16}{}}
\@writefile{lof}{\defcounter {refsection}{0}\relax }\@writefile{lof}{\contentsline {figure}{\numberline {17}{\ignorespaces Verificamos la versión de Java en este caso se instalo Java 11.\relax }}{12}{figure.caption.17}\protected@file@percent }
\newlabel{fig:mesh2}{{17}{12}{Verificamos la versión de Java en este caso se instalo Java 11.\relax }{figure.caption.17}{}}
\@writefile{lof}{\defcounter {refsection}{0}\relax }\@writefile{lof}{\contentsline {figure}{\numberline {18}{\ignorespaces Ponemos el código en un archivo dentro de cada máquina virtual.\relax }}{13}{figure.caption.18}\protected@file@percent }
\newlabel{fig:mesh2}{{18}{13}{Ponemos el código en un archivo dentro de cada máquina virtual.\relax }{figure.caption.18}{}}
\@writefile{lof}{\defcounter {refsection}{0}\relax }\@writefile{lof}{\contentsline {figure}{\numberline {19}{\ignorespaces Compilamos y comenzamos a ejecutar el programa.\relax }}{13}{figure.caption.19}\protected@file@percent }
\newlabel{fig:mesh2}{{19}{13}{Compilamos y comenzamos a ejecutar el programa.\relax }{figure.caption.19}{}}
\@writefile{lof}{\defcounter {refsection}{0}\relax }\@writefile{lof}{\contentsline {figure}{\numberline {20}{\ignorespaces Al finalizar la ejecución del programa tenemos los siguientes resultados.\relax }}{14}{figure.caption.20}\protected@file@percent }
\newlabel{fig:mesh2}{{20}{14}{Al finalizar la ejecución del programa tenemos los siguientes resultados.\relax }{figure.caption.20}{}}
\@writefile{toc}{\defcounter {refsection}{0}\relax }\@writefile{toc}{\contentsline {subsection}{\numberline {2.3}Eliminando la Máquina Virtual}{15}{subsection.2.3}\protected@file@percent }
\@writefile{lof}{\defcounter {refsection}{0}\relax }\@writefile{lof}{\contentsline {figure}{\numberline {21}{\ignorespaces Seleccionamos todas las maquinas virtuales y selecionamos la opción de eliminar recursos.\relax }}{15}{figure.caption.21}\protected@file@percent }
\newlabel{fig:mesh2}{{21}{15}{Seleccionamos todas las maquinas virtuales y selecionamos la opción de eliminar recursos.\relax }{figure.caption.21}{}}
\@writefile{lof}{\defcounter {refsection}{0}\relax }\@writefile{lof}{\contentsline {figure}{\numberline {22}{\ignorespaces Despues de eliminar los recursos asi queda la pantalla de maquinas virtuales.\relax }}{16}{figure.caption.22}\protected@file@percent }
\newlabel{fig:mesh2}{{22}{16}{Despues de eliminar los recursos asi queda la pantalla de maquinas virtuales.\relax }{figure.caption.22}{}}
\@writefile{lof}{\defcounter {refsection}{0}\relax }\@writefile{lof}{\contentsline {figure}{\numberline {23}{\ignorespaces Volvemos a eliminar los recursos completamente.\relax }}{16}{figure.caption.23}\protected@file@percent }
\newlabel{fig:mesh2}{{23}{16}{Volvemos a eliminar los recursos completamente.\relax }{figure.caption.23}{}}
\@writefile{lof}{\defcounter {refsection}{0}\relax }\@writefile{lof}{\contentsline {figure}{\numberline {24}{\ignorespaces Fin del borrado de las tres maquinas.\relax }}{17}{figure.caption.24}\protected@file@percent }
\newlabel{fig:mesh2}{{24}{17}{Fin del borrado de las tres maquinas.\relax }{figure.caption.24}{}}
\@writefile{toc}{\defcounter {refsection}{0}\relax }\@writefile{toc}{\contentsline {subsection}{\numberline {2.4}Código utilizado}{18}{subsection.2.4}\protected@file@percent }
\@writefile{toc}{\defcounter {refsection}{0}\relax }\@writefile{toc}{\contentsline {section}{\numberline {3}Conclusiones}{20}{section.3}\protected@file@percent }
