\BOOKMARK [1][-]{section.1}{Instrucciones}{}% 1
\BOOKMARK [1][-]{section.2}{Experimentaci\363n y Resultados}{}% 2
\BOOKMARK [2][-]{subsection.2.1}{M\341quinas Virtuales}{section.2}% 3
\BOOKMARK [2][-]{subsection.2.2}{Usando la M\341quina Virtual}{section.2}% 4
\BOOKMARK [2][-]{subsection.2.3}{Eliminando la M\341quina Virtual}{section.2}% 5
\BOOKMARK [2][-]{subsection.2.4}{C\363digo utilizado}{section.2}% 6
\BOOKMARK [1][-]{section.3}{Conclusiones}{}% 7
