\relax 
\providecommand\hyper@newdestlabel[2]{}
\@nameuse{bbl@beforestart}
\catcode `"\active 
\catcode `<\active 
\catcode `>\active 
\@nameuse{es@quoting}
\providecommand\HyperFirstAtBeginDocument{\AtBeginDocument}
\HyperFirstAtBeginDocument{\ifx\hyper@anchor\@undefined
\global\let\oldcontentsline\contentsline
\gdef\contentsline#1#2#3#4{\oldcontentsline{#1}{#2}{#3}}
\global\let\oldnewlabel\newlabel
\gdef\newlabel#1#2{\newlabelxx{#1}#2}
\gdef\newlabelxx#1#2#3#4#5#6{\oldnewlabel{#1}{{#2}{#3}}}
\AtEndDocument{\ifx\hyper@anchor\@undefined
\let\contentsline\oldcontentsline
\let\newlabel\oldnewlabel
\fi}
\fi}
\global\let\hyper@last\relax 
\gdef\HyperFirstAtBeginDocument#1{#1}
\providecommand\HyField@AuxAddToFields[1]{}
\providecommand\HyField@AuxAddToCoFields[2]{}
\abx@aux@refcontext{anyt/global//global/global}
\providecommand \oddpage@label [2]{}
\@writefile{toc}{\boolfalse {citerequest}\boolfalse {citetracker}\boolfalse {pagetracker}\boolfalse {backtracker}\relax }
\@writefile{lof}{\boolfalse {citerequest}\boolfalse {citetracker}\boolfalse {pagetracker}\boolfalse {backtracker}\relax }
\@writefile{lot}{\boolfalse {citerequest}\boolfalse {citetracker}\boolfalse {pagetracker}\boolfalse {backtracker}\relax }
\babel@aux{spanish}{}
\@writefile{toc}{\defcounter {refsection}{0}\relax }\@writefile{toc}{\contentsline {section}{\numberline {1}Instrucciones}{2}{section.1}\protected@file@percent }
\@writefile{lof}{\defcounter {refsection}{0}\relax }\@writefile{lof}{\contentsline {figure}{\numberline {1}{\ignorespaces Diagrama de como se ven los Nodos.\relax }}{2}{figure.caption.1}\protected@file@percent }
\providecommand*\caption@xref[2]{\@setref\relax\@undefined{#1}}
\newlabel{fig:mesh2}{{1}{2}{Diagrama de como se ven los Nodos.\relax }{figure.caption.1}{}}
\@writefile{toc}{\defcounter {refsection}{0}\relax }\@writefile{toc}{\contentsline {section}{\numberline {2}Experimentación y Resultados}{4}{section.2}\protected@file@percent }
\@writefile{lof}{\defcounter {refsection}{0}\relax }\@writefile{lof}{\contentsline {figure}{\numberline {2}{\ignorespaces Nombramos la Máquina Virtual: en este caso será para el nodo \textbf  {1} por lo que el nombre es $2015090419-1$.\relax }}{4}{figure.caption.2}\protected@file@percent }
\newlabel{fig:mesh2}{{2}{4}{Nombramos la Máquina Virtual: en este caso será para el nodo \textbf {1} por lo que el nombre es $2015090419-1$.\relax }{figure.caption.2}{}}
\@writefile{lof}{\defcounter {refsection}{0}\relax }\@writefile{lof}{\contentsline {figure}{\numberline {3}{\ignorespaces Iindicamos el nombre de usuario y la contraseña\relax }}{5}{figure.caption.3}\protected@file@percent }
\newlabel{fig:mesh2}{{3}{5}{Iindicamos el nombre de usuario y la contraseña\relax }{figure.caption.3}{}}
\@writefile{lof}{\defcounter {refsection}{0}\relax }\@writefile{lof}{\contentsline {figure}{\numberline {4}{\ignorespaces Seleccionamos el tipo de disco.\relax }}{5}{figure.caption.4}\protected@file@percent }
\newlabel{fig:mesh2}{{4}{5}{Seleccionamos el tipo de disco.\relax }{figure.caption.4}{}}
\@writefile{lof}{\defcounter {refsection}{0}\relax }\@writefile{lof}{\contentsline {figure}{\numberline {5}{\ignorespaces Despues de haber seleccionado el tipo de disco y crado la máquina, podemos utilizar el recurso.\relax }}{6}{figure.caption.5}\protected@file@percent }
\newlabel{fig:mesh2}{{5}{6}{Despues de haber seleccionado el tipo de disco y crado la máquina, podemos utilizar el recurso.\relax }{figure.caption.5}{}}
\@writefile{lof}{\defcounter {refsection}{0}\relax }\@writefile{lof}{\contentsline {figure}{\numberline {6}{\ignorespaces Habilitamos el puerto 1099: por defecto tenemos el puerto 22, agregaremos otro puerto para esta práctica.\relax }}{6}{figure.caption.6}\protected@file@percent }
\newlabel{fig:mesh2}{{6}{6}{Habilitamos el puerto 1099: por defecto tenemos el puerto 22, agregaremos otro puerto para esta práctica.\relax }{figure.caption.6}{}}
\@writefile{lof}{\defcounter {refsection}{0}\relax }\@writefile{lof}{\contentsline {figure}{\numberline {7}{\ignorespaces El procedimiento fue el mismo para las otras maquinas.Asi quedan las 3 maquinas.\relax }}{7}{figure.caption.7}\protected@file@percent }
\newlabel{fig:mesh2}{{7}{7}{El procedimiento fue el mismo para las otras maquinas.Asi quedan las 3 maquinas.\relax }{figure.caption.7}{}}
\@writefile{lof}{\defcounter {refsection}{0}\relax }\@writefile{lof}{\contentsline {figure}{\numberline {8}{\ignorespaces Nos conectamos a las maquinas a travez de Putty.\relax }}{7}{figure.caption.8}\protected@file@percent }
\newlabel{fig:mesh2}{{8}{7}{Nos conectamos a las maquinas a travez de Putty.\relax }{figure.caption.8}{}}
\@writefile{lof}{\defcounter {refsection}{0}\relax }\@writefile{lof}{\contentsline {figure}{\numberline {9}{\ignorespaces Hacemos un apt update para actualizar las maquinas.\relax }}{8}{figure.caption.9}\protected@file@percent }
\newlabel{fig:mesh2}{{9}{8}{Hacemos un apt update para actualizar las maquinas.\relax }{figure.caption.9}{}}
\@writefile{lof}{\defcounter {refsection}{0}\relax }\@writefile{lof}{\contentsline {figure}{\numberline {10}{\ignorespaces Y despues de actualizar instalamos java.\relax }}{8}{figure.caption.10}\protected@file@percent }
\newlabel{fig:mesh2}{{10}{8}{Y despues de actualizar instalamos java.\relax }{figure.caption.10}{}}
\@writefile{lof}{\defcounter {refsection}{0}\relax }\@writefile{lof}{\contentsline {figure}{\numberline {11}{\ignorespaces Instalación de java.\relax }}{9}{figure.caption.11}\protected@file@percent }
\newlabel{fig:mesh2}{{11}{9}{Instalación de java.\relax }{figure.caption.11}{}}
\@writefile{lof}{\defcounter {refsection}{0}\relax }\@writefile{lof}{\contentsline {figure}{\numberline {12}{\ignorespaces Posteriormente pasamos los archivos : InterfaceRMI.java, ClaseRMI.java, ServidorRMI.java y el ClienteRMI.java según corresponda al cliente y a los dos servidores.\relax }}{9}{figure.caption.12}\protected@file@percent }
\newlabel{fig:mesh2}{{12}{9}{Posteriormente pasamos los archivos : InterfaceRMI.java, ClaseRMI.java, ServidorRMI.java y el ClienteRMI.java según corresponda al cliente y a los dos servidores.\relax }{figure.caption.12}{}}
\@writefile{lof}{\defcounter {refsection}{0}\relax }\@writefile{lof}{\contentsline {figure}{\numberline {13}{\ignorespaces Compilamos todos los archivos .java y desde otra terminal para el Nodo 2 y el Nodo 1 ejecutamos rmiregistry. Posteriormente levantamos los dos servidores y concetamos el cliente, en este caso fue con N=8.\relax }}{10}{figure.caption.13}\protected@file@percent }
\newlabel{fig:mesh2}{{13}{10}{Compilamos todos los archivos .java y desde otra terminal para el Nodo 2 y el Nodo 1 ejecutamos rmiregistry. Posteriormente levantamos los dos servidores y concetamos el cliente, en este caso fue con N=8.\relax }{figure.caption.13}{}}
\@writefile{lof}{\defcounter {refsection}{0}\relax }\@writefile{lof}{\contentsline {figure}{\numberline {14}{\ignorespaces Para N=1000.\relax }}{10}{figure.caption.14}\protected@file@percent }
\newlabel{fig:mesh2}{{14}{10}{Para N=1000.\relax }{figure.caption.14}{}}
\@writefile{lof}{\defcounter {refsection}{0}\relax }\@writefile{lof}{\contentsline {figure}{\numberline {15}{\ignorespaces Para eliminar las maquinas vistuales, seleccionamos todas y despues damos clic en borrar.\relax }}{11}{figure.caption.15}\protected@file@percent }
\newlabel{fig:mesh2}{{15}{11}{Para eliminar las maquinas vistuales, seleccionamos todas y despues damos clic en borrar.\relax }{figure.caption.15}{}}
\@writefile{lof}{\defcounter {refsection}{0}\relax }\@writefile{lof}{\contentsline {figure}{\numberline {16}{\ignorespaces Confirmamos la acción\relax }}{11}{figure.caption.16}\protected@file@percent }
\newlabel{fig:mesh2}{{16}{11}{Confirmamos la acción\relax }{figure.caption.16}{}}
\@writefile{lof}{\defcounter {refsection}{0}\relax }\@writefile{lof}{\contentsline {figure}{\numberline {17}{\ignorespaces Y borramos los recursos que se utilizaron para dichas maquinas.\relax }}{12}{figure.caption.17}\protected@file@percent }
\newlabel{fig:mesh2}{{17}{12}{Y borramos los recursos que se utilizaron para dichas maquinas.\relax }{figure.caption.17}{}}
\@writefile{toc}{\defcounter {refsection}{0}\relax }\@writefile{toc}{\contentsline {section}{\numberline {3}Conclusiones}{13}{section.3}\protected@file@percent }
